{
	"database": {
		"mongo": {
			"name": "backend_demo",
			"host": "mongo",
			"port": 27017
		},

		"mysql": {
			"name": "backend_sql",
			"username": "root",
			"password": "password",
			"options": {
				"host": "mysql",
				"port": 3306,
				"dialect": "mysql",
				"logging": true,
				"underscored": true,
				"timestamps": false,
				"define": {
					"underscored": true,
					"timestamps": false
				}
			}
		}
	},
	"publicFolder": "./public",
	"uploadFolder": "/uploads",
	"imageFolder": "/images",
	"MixFolder": "./public/uploads/images",
	"MixInsideFolder": "./public/uploads/images/",
	"logging": {
		"name": "backend-demo",
		"level": "debug",
		"path": "./tmp/node_debug.log"
	},
	"server": {
		"baseURL": "ec2-3-83-104-121.compute-1.amazonaws.com",
		"port": "ec2-3-83-104-121.compute-1.amazonaws.com"
	}
}
